{
    "target_acceleration": 300,
    "min_frequency": 50,
    "max_frequency": 20000,
    "hours_run": 0,
    "max_hours_run": 1000,
    "min_force": 1,
    "min_radius": 1,
    "max_radius": 33,
    "cycles_ran": 0,
    "max_cycles_ran": 42133769
}